[gd_scene load_steps=4 format=2]

[ext_resource path="res://bullet.png" type="Texture" id=1]
[ext_resource path="res://Bullet.gd" type="Script" id=2]

[sub_resource type="CircleShape2D" id=1]
radius = 5.0

[node name="Bullet" type="KinematicBody2D"]
collision_layer = 2
collision_mask = 2
script = ExtResource( 2 )

[node name="CollisionShape2D" type="CollisionShape2D" parent="."]
shape = SubResource( 1 )

[node name="Sprite" type="Sprite" parent="."]
texture = ExtResource( 1 )

[node name="VisibilityNotifier2D" type="VisibilityNotifier2D" parent="."]

[connection signal="screen_exited" from="VisibilityNotifier2D" to="." method="_on_VisibilityNotifier2D_screen_exited"]
